STAT 220 Lab 2 — Exploring Numerical Data
…
# A tibble: 5 x 2
  cut       ave_price
  <ord>         <dbl>
1 Fair          4359.
2 Good          3929.
3 Very Good     3982.
4 Premium       4584.
5 Ideal         3458.

Find average price by cut and clarity

summarise(group_by(diamonds, cut, clarity), mean(price))

# A tibble: 40 x 3
# Groups:   cut [5]
   cut   clarity `mean(price)`
   <ord> <ord>           <dbl>
 1 Fair  I1              3704.
 2 Fair  SI2             5174.
 3 Fair  SI1             4208.
 4 Fair  VS2             4175.
 5 Fair  VS1             4165.
 6 Fair  VVS2            3350.
 7 Fair  VVS1            3871.
 8 Fair  IF              1912.
 9 Good  I1              3597.
10 Good  SI2             4580.
# … with 30 more rows
…
